{
   "appname":"schluss",
   "version":"1.0",
   "name":"Schluss",
   "description":"Met Schluss bepaal jij, en jij alleen, wie wat van je mag weten op internet",
   "website":"https://www.schluss.org",
   "logourl":"https://www.schluss.org/qr/media/img/schluss-logo.png",
   "scope":[
	{"name":"firstname","label":"Voornaam","type":"text","description":"Om je bij je naam te kunnen noemen bij het versturen van een nieuwsbrief","notifyonchange":true},
	{"name":"lastname","label":"Achternaam","type":"text","description":"Om je complete naam te gebruiken bij correspondentie aan jou","notifyonchange":true},
	{"name":"email","label":"E-mail adres","type":"email","description":"Om je een nieuwsbrief per e-mail te kunnen sturen","notifyonchange":true},
	{"name":"test","label":"Durf jij mee te doen?","type":"text","description":"Noteer dan hier wat je kan toevoegen aan Schluss","notifyonchange":true}
   ],
   "apiUri":"https://www.schluss.org/qr/api",
   "getSessionIdUri":"https://www.schluss.org/qr/api/?action=startsession"
}